0
1
3100
100
256
-203
106762625
201654515843313754717892816793523516080173937809682761764042964938225695884227752685546875
2105214596561626119891390475518992902139
1267303827649369489086599142395135174258
810061513795413125268453727103750427867
25128038418943663031
-43555892399719623312
170436826694385433743909413810022791985
113550479522192476305
8796057008925098674300103175672898909989
48913764922219008110
-67265206198720749340
41063625
5675185489038834108022955261944222463100
-84626500273972205258
319697489127116338991813957770373337990501976313870681602120393642991913853156942927546642423198004831650755746412876376939836745890684569527294838721
35213627236285416467
66388609410596078671
160256442295421446712
146128348677584248995
-7868656838812662818
-63226547435997961853
91808389077076130833
98444056543885124557
3837033986181788828114438919393395012813
92784776240472571958
3600840555657213402491744538163299589328
120535442738839310039
688219040632167433295056978715547926895
133535057267515445347
121318374581689064327
4239625048904339092476993404103708138658
101232808461730590682
7920183725538765833884810476115293558644
77095893541719886607
90282769513810272172
2462346458057
-111577
1212474266080
721986938
-146355896697800
1982130968803232976457392
789210807376881
41185150185304
7611443886510151354384
409177171497282760005737112232286231674125
551242891879634415272508827827321
4717670686276655650582337607
356234545122327590398142959483
